<?xml version="1.0" encoding="utf-8"?>
<!-- Generator: Adobe Illustrator 22.1.0, SVG Export Plug-In . SVG Version: 6.00 Build 0)  -->
<svg version="1.1" id="Camada_1" xmlns="http://www.w3.org/2000/svg" xmlns:xlink="http://www.w3.org/1999/xlink" x="0px" y="0px"
	 viewBox="0 0 160 160" style="enable-background:new 0 0 160 160;" xml:space="preserve">
<style type="text/css">
	.st0{fill:#FFFFFF;}
	.st1{fill-rule:evenodd;clip-rule:evenodd;fill:#FFFFFF;}
	.st2{fill:#212326;}
</style>
<g>
	<path class="st0" d="M88.7,63.9c1.2-1.4,3.5-2.3,6.8-2.3c3.1,0,6.8,0.4,10.2,1.4l2.9-15.7c-6-2.1-12.2-2.7-18.6-2.7
		c-6.4,0-11.4,1-15.5,3.3c-4.1,2.3-6.8,4.9-8.3,8.6c-1.6,3.3-2.3,8.9-2.3,15.8v6.2H51.6v18H64V153c5.2,1.2,10.6,1.7,16.3,1.7
		c2.1,0,4.3,0,6.4-0.4V96.4H103v-18H86.6v-5.8C86.6,68.2,87.2,65.5,88.7,63.9z"/>
</g>
<g>
	<path class="st1" d="M125.5,67.9c-5-20.8-23-34.9-44.8-35.2c-2.9,0.1-6,0.3-8.8,0.9c-30.5,6-46.2,39.5-31.4,66.4
		c0.5,0.8,0.5,1.4,0.4,2.3c-2.1,7-4.1,14.1-6,21.2c-0.3,1.2-0.3,1.2,0.9,0.9c7.4-2,14.8-3.9,22.2-5.7c0.7-0.2,1.1-0.2,1.7,0.1
		c9.5,4.8,19.6,6.1,30.2,4.2C115,118.1,131.5,92.7,125.5,67.9z M87.2,115.7c-2.2,0.4-4.3,0.6-5.3,0.5c-8.1,0-14.6-1.8-20.7-5.3
		c-0.9-0.5-1.5-0.7-2.3-0.4c-4.2,1-8.2,2.1-12.3,3.2c-0.8,0.2-0.9,0.1-0.7-0.8c1.1-3.7,2.1-7.6,3.3-11.5c0.3-1,0.2-1.9-0.5-2.7
		c-8.3-13.4-8-30,1.4-42.5C59.7,43.3,73,38,88.8,41.3c15.6,3.2,25.6,13.3,29.2,28.8C123,91.2,108.6,112.2,87.2,115.7z"/>
	<path class="st1" d="M92.7,100c-1.6,0.1-3.2-0.1-4.8-0.6c-10.5-3-18.5-9.4-24.8-18.1c-2.4-3.2-4.6-6.7-5.3-10.7
		c-1-4.7,0.5-8.9,4.1-12.2c1.2-1.1,4.7-1.6,6.1-0.9c0.5,0.4,0.7,0.8,1,1.2c1.3,3.2,2.7,6.3,4,9.3c0.2,0.6,0.2,1.3-0.2,1.9
		c-0.7,1.4-1.8,2.6-2.8,3.8c-0.9,0.7-0.9,1.6-0.3,2.5c3.8,6.2,8.8,10.7,15.7,13.4c1,0.4,1.7,0.2,2.4-0.5c1.2-1.4,2.3-2.8,3.4-4.3
		c0.7-0.9,1.6-1,2.6-0.6c2.3,1,4.5,2.1,6.6,3c0.6,0.3,1,0.5,1.5,0.7c2.3,1.2,2.3,1.3,2,3.7c-0.3,4.8-4,7.2-8.2,8.4
		C94.7,100.2,93.7,100.2,92.7,100z"/>
</g>
<path class="st2" d="M153.9,81c0,41.4-33.6,75-75,75c-41.5,0-75-33.6-75-75c0-41.5,33.6-75,75-75C120.3,6,153.9,39.5,153.9,81z"/>
<g>
	<path class="st1" d="M33.5,111.5c7.1,0.5,14.1-0.6,20.6-3.6c2.9-1.3,5.6-2.8,8.2-4.9c-3.1-0.1-5.9-0.8-8.5-2.1
		c-4.4-2.2-7.5-5.8-9.4-10.5c-0.4-1-0.4-1,0.7-1c3.1,0.3,5.5,0.2,7.2-0.5c-1.7-0.6-3.3-0.9-4.6-1.8c-6.6-3.6-10.1-9.3-10.7-16.8
		c-0.1-0.9,0.2-1,1-0.6c2.3,1.3,4.8,1.9,7.7,2.1c-1.3-1.2-2.3-2.1-3.3-3C37,63,35.7,53.6,39.3,46.5c0.5-0.9,0.7-0.9,1.3-0.2
		c9.2,10.6,20.6,17,34.4,19.2c1.4,0.3,2.9,0.3,4.4,0.6c1,0.2,1.1-0.3,0.9-1c-1.4-8.3,2.4-16.5,9.8-20.6c7.5-4.4,17.2-3,23.2,2.9
		c0.7,0.6,1.4,0.8,2.2,0.5c3.7-0.8,7.2-2.2,10.4-4.1c0.3-0.1,0.5-0.2,0.8-0.5c-1.4,4.6-4.2,8.1-8.3,10.9c3.8-0.4,7.2-1.5,10.6-2.8
		c0.1,0.5-0.3,0.8-0.5,1.2c-2.3,3.1-5,6-8.2,8.4c-0.6,0.5-0.7,0.8-0.7,1.6c0.2,14.4-4.4,27.3-13.6,38.5
		c-8.7,10.2-19.8,16.3-32.9,18.5c-14,2.2-27.1-0.2-39.2-7.7C33.8,111.6,33.6,111.5,33.5,111.5z"/>
</g>
</svg>
